1534437274
s:655:"O:34:"XLite\Core\View\DTO\RenderedWidget":3:{s:7:"content";s:546:"
  

<div class="switch23-value">
      <input type="hidden" class="old-value" name="switch[23][old]" value="" />
<div class="onoffswitch enable">
      <input type="hidden" name="switch[23][new]" value="" />
      <input id="switch23" name="switch[23][new]" type="checkbox" value="1" class="form-control" />
  <label for="switch23">
    <div class="onoffswitch-inner">
      <div class="on-caption">On</div>
      <div class="off-caption">Off</div>
    </div>
    <span class="onoffswitch-switch"></span>
  </label>
</div>
            </div>



";s:6:"assets";a:0:{}s:8:"metaTags";a:0:{}}";