1534437274
s:675:"O:34:"XLite\Core\View\DTO\RenderedWidget":3:{s:7:"content";s:566:"
  

<div class="switch30-value">
      <input type="hidden" class="old-value" name="switch[30][old]" value="1" />
<div class="onoffswitch disable">
      <input type="hidden" name="switch[30][new]" value="" />
      <input id="switch30" name="switch[30][new]" type="checkbox" value="1" class="form-control" checked="checked" />
  <label for="switch30">
    <div class="onoffswitch-inner">
      <div class="on-caption">On</div>
      <div class="off-caption">Off</div>
    </div>
    <span class="onoffswitch-switch"></span>
  </label>
</div>
            </div>



";s:6:"assets";a:0:{}s:8:"metaTags";a:0:{}}";