1534437274
s:267:"O:34:"XLite\Core\View\DTO\RenderedWidget":3:{s:7:"content";s:158:"
<a class="settings" href="http://localhost/xcart/admin.php?target=module&amp;moduleId=51&amp;returnTarget=addons_list_installed">
<span>Settings</span>
</a>
";s:6:"assets";a:0:{}s:8:"metaTags";a:0:{}}";