1534437274
s:379:"O:34:"XLite\Core\View\DTO\RenderedWidget":3:{s:7:"content";s:270:"
<div class="remove-wrapper remove uninstall">
  <button type="button" class="remove uninstall" title="Uninstall" tabindex="-1">
          <i class="fa fa-trash-o"></i>
      </button>
  <input type="checkbox" name="switch[1][delete]" value="1" tabindex="-1" />
</div>

";s:6:"assets";a:0:{}s:8:"metaTags";a:0:{}}";