1534437256
s:367:"O:34:"XLite\Core\View\DTO\RenderedWidget":3:{s:7:"content";s:258:"<label for="install-531" class="install-module-button btn regular-button">
  <input
    id="install-531"
    type="checkbox"
    data="531"
    name="selectToInstall[531]"
        class="install-module-action" />
  <span class="text">Install</span>
</label>
";s:6:"assets";a:0:{}s:8:"metaTags";a:0:{}}";